{
  "name": "Beyonce",
  "score": 90,
  "photoUrl": "https://s2.qwant.com/thumbr/474x474/4/b/a01d8f6093045a762e25246f74ccc16955315ff15f14d80e4d717d8534376b/th.jpg?u=https%3A%2F%2Ftse2.mm.bing.net%2Fth%3Fid%3DOIP.wOV1HAbXzK3NWPBGXdERogHaHa%26pid%3DApi&q=0&b=1&p=0&a=0"
}
